%YAML 1.1
%TAG !u! tag:unity3d.com,2011:
--- !u!114 &11400000
MonoBehaviour:
  m_ObjectHideFlags: 0
  m_CorrespondingSourceObject: {fileID: 0}
  m_PrefabInternal: {fileID: 0}
  m_GameObject: {fileID: 0}
  m_Enabled: 1
  m_EditorHideFlags: 0
  m_Script: {fileID: 11500000, guid: fde7d1a63cdd0634b9a88d5df17f5642, type: 3}
  m_Name: Feature_Hair_Hole_3_Behind_Head
  m_EditorClassIdentifier: 
  extraID: 3 Behind Head
  dummySprite: {fileID: 21300000, guid: d2a64648e5b124140b0e85c5ed3b6916, type: 3}
