%YAML 1.1
%TAG !u! tag:unity3d.com,2011:
--- !u!114 &11400000
MonoBehaviour:
  m_ObjectHideFlags: 0
  m_CorrespondingSourceObject: {fileID: 0}
  m_PrefabInternal: {fileID: 0}
  m_GameObject: {fileID: 0}
  m_Enabled: 1
  m_EditorHideFlags: 0
  m_Script: {fileID: 11500000, guid: 713601df22370c043b27fd6ed24b9e8c, type: 3}
  m_Name: Feature_Hair
  m_EditorClassIdentifier: 
  uniqueID: hair
  m_LocaleItems:
  - m_Language: 10
    m_Value: Hair
  details:
  - {fileID: 11400000, guid: 8fe2d3575318bd948a5f147255e26252, type: 2}
  - {fileID: 11400000, guid: 33e79eae8855a4f4f92d6770e86e1f39, type: 2}
  - {fileID: 11400000, guid: 51d78d0c8f96f694f991b36f14f73d0e, type: 2}
  - {fileID: 11400000, guid: d631fc8dfde8c11459469a63a710a9fd, type: 2}
  emptyAllowed: 1
