%YAML 1.1
%TAG !u! tag:unity3d.com,2011:
--- !u!114 &11400000
MonoBehaviour:
  m_ObjectHideFlags: 0
  m_CorrespondingSourceObject: {fileID: 0}
  m_PrefabInternal: {fileID: 0}
  m_GameObject: {fileID: 0}
  m_Enabled: 1
  m_EditorHideFlags: 0
  m_Script: {fileID: 11500000, guid: 38b0464209607014080c3cbbaef27d84, type: 3}
  m_Name: Socket_Head
  m_EditorClassIdentifier: 
  uniqueID: head
  m_LocaleItems:
  - m_Language: 10
    m_Value: Head
  holes:
  - {fileID: 11400000, guid: cd81302b1868658448d5886b6d02a4d3, type: 2}
  - {fileID: 11400000, guid: a9bf3c1b606579244b092a06c7779102, type: 2}
  emptyAllowed: 0
