%YAML 1.1
%TAG !u! tag:unity3d.com,2011:
--- !u!114 &11400000
MonoBehaviour:
  m_ObjectHideFlags: 0
  m_CorrespondingSourceObject: {fileID: 0}
  m_PrefabInternal: {fileID: 0}
  m_GameObject: {fileID: 0}
  m_Enabled: 1
  m_EditorHideFlags: 0
  m_Script: {fileID: 11500000, guid: 674e2c9542151034aac1fcc8b38b6ae1, type: 3}
  m_Name: ShownAnnouncementsCache
  m_EditorClassIdentifier: 
  prints: []
  key: shownAnnouncementsCache
  isCloudSyncable: 0
  isUserDependent: 0
  isCourseDependent: 0
  type: GLAnnouncementManager+ShownAnnouncements
