%YAML 1.1
%TAG !u! tag:unity3d.com,2011:
--- !u!114 &11400000
MonoBehaviour:
  m_ObjectHideFlags: 0
  m_CorrespondingSourceObject: {fileID: 0}
  m_PrefabInternal: {fileID: 0}
  m_GameObject: {fileID: 0}
  m_Enabled: 1
  m_EditorHideFlags: 0
  m_Script: {fileID: 11500000, guid: 06cdbe4ab94d90f469c820ac6da280ad, type: 3}
  m_Name: Plug_Nose_Normal
  m_EditorClassIdentifier: 
  uniqueID: normal
  m_LocaleItems:
  - m_Language: 10
    m_Value: Normal
  forSocket: {fileID: 11400000, guid: f9a6178919f68cf4eaaeb3c00ad7bee7, type: 2}
