%YAML 1.1
%TAG !u! tag:unity3d.com,2011:
--- !u!114 &11400000
MonoBehaviour:
  m_ObjectHideFlags: 0
  m_CorrespondingSourceObject: {fileID: 0}
  m_PrefabInternal: {fileID: 0}
  m_GameObject: {fileID: 0}
  m_Enabled: 1
  m_EditorHideFlags: 0
  m_Script: {fileID: 11500000, guid: 7eca0a883d3ab1242b58af97d393eef0, type: 3}
  m_Name: Feature_Design_Lock
  m_EditorClassIdentifier: 
  uniqueID: lock
  m_LocaleItems:
  - m_Language: 10
    m_Value: Lock
  forFeature: {fileID: 11400000, guid: 6457e0b13ffa71642adb8fe82c4e5bb3, type: 2}
  hidden: 0
  details:
  - definition: {fileID: 11400000, guid: 8fe2d3575318bd948a5f147255e26252, type: 2}
    sprite: {fileID: 21300000, guid: bdc5e013571090d429acdb2fb9c79a97, type: 3}
