%YAML 1.1
%TAG !u! tag:unity3d.com,2011:
--- !u!114 &11400000
MonoBehaviour:
  m_ObjectHideFlags: 0
  m_CorrespondingSourceObject: {fileID: 0}
  m_PrefabInternal: {fileID: 0}
  m_GameObject: {fileID: 0}
  m_Enabled: 1
  m_EditorHideFlags: 0
  m_Script: {fileID: 11500000, guid: e526fdf2fb42df846b6a7aa9fcbcdf13, type: 3}
  m_Name: LastDocumentOpenLocation
  m_EditorClassIdentifier: 
  prints:
  - "User 1, user1@orbitgames.nl\nbOZ0Cflo1MaIOsAELMLcKXt2\n\nIntegration Test Course
    2018-11-11 2017 5\nQQUM3M75SbVIZHcGeUk2lTL7\n\n--------------------\nliveValue
    = \nstoredValue = \n--------------------\nvalueStorageKey = EDIT_bOZ0Cflo1MaIOsAELMLcKXt2QQUM3M75SbVIZHcGeUk2lTL7lastDocumentSaveLocation\ncloudStorageKey
    = CloudDirty_EDIT_bOZ0Cflo1MaIOsAELMLcKXt2QQUM3M75SbVIZHcGeUk2lTL7lastDocumentSaveLocation\nisCloudDirty
    = False\n"
  key: lastDocumentSaveLocation
  defaultValue: 
  isCloudSyncable: 0
  isUserDependent: 1
  isCourseDependent: 0
