%YAML 1.1
%TAG !u! tag:unity3d.com,2011:
--- !u!114 &11400000
MonoBehaviour:
  m_ObjectHideFlags: 0
  m_CorrespondingSourceObject: {fileID: 0}
  m_PrefabInstance: {fileID: 0}
  m_PrefabAsset: {fileID: 0}
  m_GameObject: {fileID: 0}
  m_Enabled: 1
  m_EditorHideFlags: 0
  m_Script: {fileID: 11500000, guid: af65ee6b0f35f974dba93979a07edbce, type: 3}
  m_Name: Description_HandIn_TourStillTodo
  m_EditorClassIdentifier: 
  m_LocaleItems:
  - m_Language: 10
    m_Value: A grumpy librarian made the tour mandatory. Before you can hand in your
      work, you'd have to stop by the Tour Office to receive a short presentation
      on what it is they expect you to be doing here. Let's just get it over with!
      What do you say?
