%YAML 1.1
%TAG !u! tag:unity3d.com,2011:
--- !u!114 &11400000
MonoBehaviour:
  m_ObjectHideFlags: 0
  m_CorrespondingSourceObject: {fileID: 0}
  m_PrefabInternal: {fileID: 0}
  m_GameObject: {fileID: 0}
  m_Enabled: 1
  m_EditorHideFlags: 0
  m_Script: {fileID: 11500000, guid: 06cdbe4ab94d90f469c820ac6da280ad, type: 3}
  m_Name: Plug_Eyes_Pleased
  m_EditorClassIdentifier: 
  uniqueID: pleased
  m_LocaleItems:
  - m_Language: 10
    m_Value: Pleased
  forSocket: {fileID: 11400000, guid: f21242a333220374fbcbb544916d5bcc, type: 2}
