%YAML 1.1
%TAG !u! tag:unity3d.com,2011:
--- !u!114 &11400000
MonoBehaviour:
  m_ObjectHideFlags: 0
  m_CorrespondingSourceObject: {fileID: 0}
  m_PrefabInstance: {fileID: 0}
  m_PrefabAsset: {fileID: 0}
  m_GameObject: {fileID: 0}
  m_Enabled: 1
  m_EditorHideFlags: 0
  m_Script: {fileID: 11500000, guid: af65ee6b0f35f974dba93979a07edbce, type: 3}
  m_Name: Error_ApiClientError
  m_EditorClassIdentifier: 
  m_LocaleItems:
  - m_Language: 10
    m_Value: 'Just when your computer finally calculated the answer to life, the universe
      and everything, a wizard (wanting to save you from learning the depressing answer)
      cast a spell on your computer, causing the calculations to fracture. This resulted
      in the following computer error: "<b>{0}</b>". We''d recommend sending the building
      developers a report.'
