%YAML 1.1
%TAG !u! tag:unity3d.com,2011:
--- !u!114 &11400000
MonoBehaviour:
  m_ObjectHideFlags: 0
  m_CorrespondingSourceObject: {fileID: 0}
  m_PrefabInstance: {fileID: 0}
  m_PrefabAsset: {fileID: 0}
  m_GameObject: {fileID: 0}
  m_Enabled: 1
  m_EditorHideFlags: 0
  m_Script: {fileID: 11500000, guid: 9381e77ed8957a24b8ee80b8b52fe828, type: 3}
  m_Name: HasHadUpgradeFixTo_1_0_5
  m_EditorClassIdentifier: 
  prints: []
  key: hasHadUpgradeFixTo_1_0_5
  defaultValue: 0
  isCloudSyncable: 0
  isUserDependent: 0
  isCourseDependent: 0
