%YAML 1.1
%TAG !u! tag:unity3d.com,2011:
--- !u!114 &11400000
MonoBehaviour:
  m_ObjectHideFlags: 0
  m_CorrespondingSourceObject: {fileID: 0}
  m_PrefabInstance: {fileID: 0}
  m_PrefabAsset: {fileID: 0}
  m_GameObject: {fileID: 0}
  m_Enabled: 1
  m_EditorHideFlags: 0
  m_Script: {fileID: 11500000, guid: af65ee6b0f35f974dba93979a07edbce, type: 3}
  m_Name: Description_YouAndDevelopers
  m_EditorClassIdentifier: 
  m_LocaleItems:
  - m_Language: 10
    m_Value: This conversation allows you to directly contact us, the developers of
      the Great Library, if you are experiencing technical difficulties. It is also
      where you may leave us some feedback if you please!
